
<svg version="1.1" id="bg-Layer_1" xmlns="http://www.w3.org/2000/svg" xmlns:xlink="http://www.w3.org/1999/xlink" x="0px" y="0px"
	 width="2324.36px" height="9565.5px" viewBox="117.82 0 2324.36 9565.5" enable-background="new 117.82 0 2324.36 9565.5"
	 xml:space="preserve">
<g id="bg-bg-Layer_6">
	<g>
		<rect x="0.14" y="0.28" fill="#EDEFF2" width="2560" height="9557.001"/>
		
			<linearGradient id="bg-SVGID_1_" gradientUnits="userSpaceOnUse" x1="39.1602" y1="500.8652" x2="2358.04" y2="500.8652" gradientTransform="matrix(1 0 0 -1 84 9540.5)">
			<stop  offset="0.0083" style="stop-color:#283451"/>
			<stop  offset="0.3303" style="stop-color:#293654"/>
			<stop  offset="0.5698" style="stop-color:#2E3C5D"/>
			<stop  offset="0.7825" style="stop-color:#36466E"/>
			<stop  offset="0.9786" style="stop-color:#425584"/>
			<stop  offset="1" style="stop-color:#435787"/>
		</linearGradient>
		<path fill="url(#bg-SVGID_1_)" d="M2328.65,9565.5c62.359-0.129,113.39-55.75,113.39-118.109v-820.23
			c0-62.359-51.021-113.391-113.39-113.391H236.38c-62.36,0-113.31,51.02-113.22,113.391v825.18
			c0.09,62.359,52.78,113.281,115.14,113.16H2328.65z"/>
		
			<linearGradient id="bg-SVGID_2_" gradientUnits="userSpaceOnUse" x1="33.6699" y1="1322.9453" x2="2358.0303" y2="1322.9453" gradientTransform="matrix(1 0 0 -1 84 9540.5)">
			<stop  offset="0" style="stop-color:#F3DEC3"/>
			<stop  offset="0.2253" style="stop-color:#F3DBC1"/>
			<stop  offset="0.3996" style="stop-color:#F3D1BC"/>
			<stop  offset="0.5567" style="stop-color:#F3C1B3"/>
			<stop  offset="0.7038" style="stop-color:#F3A9A6"/>
			<stop  offset="0.8439" style="stop-color:#F48B96"/>
			<stop  offset="0.9769" style="stop-color:#F46782"/>
			<stop  offset="1" style="stop-color:#F4607E"/>
		</linearGradient>
		<path fill="url(#bg-SVGID_2_)" d="M215.87,8876.129c-54.01-31.18-98.2-107.719-98.2-170.078v-1077.16
			c0-62.36,44.19-87.881,98.21-56.721L846.9,7936.3c54.01,31.17,142.39,31.149,196.39-0.05l1300.56-751.311
			c54-31.189,98.181-5.689,98.181,56.67V8318.78c0,62.36-44.19,138.9-98.2,170.08l-1301.18,751.241
			c-54.011,31.18-142.381,31.18-196.391,0L215.87,8876.129z"/>
		
			<linearGradient id="bg-SVGID_3_" gradientUnits="userSpaceOnUse" x1="33.6802" y1="8494.583" x2="2358.04" y2="8494.583" gradientTransform="matrix(1 0 0 -1 84 9540.5)">
			<stop  offset="0" style="stop-color:#F3DEC3"/>
			<stop  offset="0.2399" style="stop-color:#BCD7D3"/>
			<stop  offset="0.4898" style="stop-color:#8BD0E1"/>
			<stop  offset="0.7089" style="stop-color:#66CBEB"/>
			<stop  offset="0.8864" style="stop-color:#50C8F2"/>
			<stop  offset="1" style="stop-color:#48C7F4"/>
		</linearGradient>
		<path fill="url(#bg-SVGID_3_)" d="M117.68,457.23c0-62.36,44.19-87.87,98.2-56.69l630.4,363.95c54.01,31.18,142.38,31.18,196.39,0
			L2343.84,13.31c54.01-31.18,98.2-5.67,98.2,56.7v1077.17c0,62.36-44.19,138.9-98.19,170.08l-1300.92,751.18
			c-54.01,31.181-142.38,31.19-196.399,0.021l-630.65-363.99c-54.01-31.17-98.2-107.7-98.2-170.06V457.23L117.68,457.23z"/>
		<path fill="#EDEFF2" d="M-0.14,1579.73l846.63,488.709c54.01,31.17,142.39,31.181,196.399,0l466.3-269.239L-0.14,927.79V1579.73z"
			/>
		
			<linearGradient id="bg-SVGID_4_" gradientUnits="userSpaceOnUse" x1="33.6597" y1="6864.666" x2="2358.0293" y2="6864.666" gradientTransform="matrix(1 0 0 -1 84 9540.5)">
			<stop  offset="0" style="stop-color:#F3DEC3"/>
			<stop  offset="0.2253" style="stop-color:#F3DBC1"/>
			<stop  offset="0.3996" style="stop-color:#F3D1BC"/>
			<stop  offset="0.5567" style="stop-color:#F3C1B3"/>
			<stop  offset="0.7038" style="stop-color:#F3A9A6"/>
			<stop  offset="0.8439" style="stop-color:#F48B96"/>
			<stop  offset="0.9769" style="stop-color:#F46782"/>
			<stop  offset="1" style="stop-color:#F4607E"/>
		</linearGradient>
		<path fill="url(#bg-SVGID_4_)" d="M117.68,1761.17c0-62.359,44.19-87.88,98.2-56.7l630.61,363.98
			c54.01,31.17,142.39,31.17,196.39-0.021l1300.96-751.18c54.01-31.18,98.189-5.67,98.189,56.69V3103.02
			c0,62.36-44.189,138.9-98.199,170.08l-1301.181,751.24c-54.01,31.18-142.38,31.18-196.39,0l-630.4-363.96
			c-54.01-31.18-98.2-107.71-98.2-170.08V1761.17H117.68z"/>
		
			<linearGradient id="bg-SVGID_5_" gradientUnits="userSpaceOnUse" x1="33.6802" y1="2952.8228" x2="2358.04" y2="2952.8228" gradientTransform="matrix(1 0 0 -1 84 9540.5)">
			<stop  offset="0" style="stop-color:#EED0AA"/>
			<stop  offset="1" style="stop-color:#48C7F4"/>
		</linearGradient>
		<path fill="url(#bg-SVGID_5_)" d="M117.68,5672.98c0-62.36,44.18-87.871,98.19-56.681l630.14,363.931
			c54,31.189,142.38,31.199,196.391,0.02L2343.84,5229c54.01-31.18,98.2-5.66,98.2,56.7v1729.13c0,62.359-44.18,138.91-98.18,170.1
			L1043.3,7936.25c-54,31.2-142.38,31.21-196.39,0.05l-631.02-364.13c-54.01-31.17-98.21-107.689-98.21-170.05V5672.98
			L117.68,5672.98z"/>
		<path fill="#EDEFF2" d="M-0.14,5022.689v1306.32l526.75,305.85c53.939,31.301,142.229,31.351,196.199,0.101l938.251-543.21
			c53.97-31.25,53.729-79.29-0.471-110.13L-0.14,5022.689z"/>
		
			<linearGradient id="bg-SVGID_6_" gradientUnits="userSpaceOnUse" x1="33.6802" y1="4908.7813" x2="2358.0498" y2="4908.7813" gradientTransform="matrix(1 0 0 -1 84 9540.5)">
			<stop  offset="0.0083" style="stop-color:#283451"/>
			<stop  offset="0.3303" style="stop-color:#293654"/>
			<stop  offset="0.5698" style="stop-color:#2E3C5D"/>
			<stop  offset="0.7825" style="stop-color:#36466E"/>
			<stop  offset="0.9786" style="stop-color:#425584"/>
			<stop  offset="1" style="stop-color:#435787"/>
		</linearGradient>
		<path fill="url(#bg-SVGID_6_)" d="M117.68,5446.21c0,62.36,44.19,138.899,98.2,170.08l630.4,363.96
			c54.01,31.18,142.38,31.18,196.39,0l1301.18-751.24c54.011-31.18,98.2-107.721,98.2-170.08V3329.8
			c0-62.36-44.189-87.87-98.2-56.689L1042.67,4024.35c-54.01,31.181-142.38,31.181-196.39,0l-630.4-363.959
			c-54.01-31.181-98.2-5.67-98.2,56.689V5446.21L117.68,5446.21z"/>
		
			<linearGradient id="bg-SVGID_7_" gradientUnits="userSpaceOnUse" x1="39.1499" y1="4480.4585" x2="1049.6602" y2="4480.4585" gradientTransform="matrix(1 0 0 -1 84 9540.5)">
			<stop  offset="0.0083" style="stop-color:#283451"/>
			<stop  offset="0.3303" style="stop-color:#293654"/>
			<stop  offset="0.5698" style="stop-color:#2E3C5D"/>
			<stop  offset="0.7825" style="stop-color:#36466E"/>
			<stop  offset="0.9786" style="stop-color:#425584"/>
			<stop  offset="1" style="stop-color:#435787"/>
		</linearGradient>
		<path fill="url(#bg-SVGID_7_)" d="M528.46,5328.29c54.01,31.181,142.38,31.181,196.39,0l368.341-212.67
			c54.01-31.181,53.949-82.11-0.12-113.181L726.09,4791.6c-54.07-31.069-142.46-30.899-196.42,0.371l-366.08,212.17
			c-53.96,31.27-53.91,82.369,0.09,113.549L528.46,5328.29z"/>
		
			<linearGradient id="bg-bg-SVGID_8_" gradientUnits="userSpaceOnUse" x1="1162.2026" y1="5343.4775" x2="2358.0498" y2="5343.4775" gradientTransform="matrix(1 0 0 -1 84 9540.5)">
			<stop  offset="0.0083" style="stop-color:#283451"/>
			<stop  offset="0.3303" style="stop-color:#293654"/>
			<stop  offset="0.5698" style="stop-color:#2E3C5D"/>
			<stop  offset="0.7825" style="stop-color:#36466E"/>
			<stop  offset="0.9786" style="stop-color:#425584"/>
			<stop  offset="1" style="stop-color:#435787"/>
		</linearGradient>
		<path fill="url(#bg-bg-SVGID_8_)" d="M2442.04,3686.17L1286.7,4358.641c-54,31.189-54,82.199,0.02,113.369l368.29,212.5
			c54.021,31.17,142.391,31.15,196.4-0.039l590.64-346.33L2442.04,3686.17z"/>
		<path fill="#EDEFF2" d="M2559.86,7526.27L713.36,8581.891c-54.19,30.859-54.28,81.5-0.19,112.539l947.84,543.92
			c54.09,31.041,142.7,31.209,196.91,0.389l701.93-402.109L2559.86,7526.27z"/>
		<path fill="#EDEFF2" d="M2554.36,1662.25l-1829.5,1058.2c-53.97,31.239-53.94,82.3,0.08,113.47l368.29,212.5
			c54.02,31.17,142.399,31.15,196.399-0.03l1264.681-730.239L2554.36,1662.25z"/>
	</g>
</g>
</svg>
